D:\Projects\ServletTest - work\src\main\java\com\nt\servlet\TomCatProducer.java
D:\Projects\ServletTest - work\src\main\java\com\nt\servlet\MQConnect.java
D:\Projects\ServletTest - work\src\main\java\com\nt\servlet\MyDB.java
D:\Projects\ServletTest - work\src\main\java\com\nt\servlet\ServletTest.java
